Hypothesis Testing – Data Science with R
…
\[ 2.2 \quad 1.8 \quad 3.1 \quad 2.0 \quad 2.4 \quad 2.0 \quad 2.1 \quad 1.2 \]

Assuming that the sampled population is normal,

Can we say that the mean polluant concentration is present with less than \(2.5 \mu\)g/m\(^2\)?

Can we say that the mean polluant concentration is present with less than \(2.4 \mu\)g/m\(^2\)?

Is the normality hypothesis essential to justify the method used?

Exercise 3

A medical inspection in an elementary school during a measles epidemic led to the examination of \(30\) children to assess whether they were affected. The results are in a tibble exam which contains the following:

# A tibble: 30 × 2
      Id Status 
   <int> <chr>  
 1     1 Healthy
 2     2 Healthy
 3     3 Healthy
 4     4 Healthy
 5     5 Healthy
 6     6 Healthy
 7     7 Healthy
 8     8 Healthy
 9     9 Healthy
10    10 Healthy
# ℹ 20 more rows
…
