PCA - Solutions – Data Science with R
…
We can use the readr::read_delim() function to import the data as follows:

temperature <- readr::read_delim(
  "12-PCA-Data/temperature.csv", 
  delim = ";", 
  trim_ws = TRUE,
  show_col_types = FALSE
)

New names:
• `` -> `...1`

temperature

# A tibble: 35 × 18
   ...1  January February March April   May  June  July August September October
   <chr>   <dbl>    <dbl> <dbl> <dbl> <dbl> <dbl> <dbl>  <dbl>     <dbl>   <dbl>
 1 Amst…     2.9      2.5   5.7   8.2  12.5  14.8  17.1   17.1      14.5    11.4
 2 Athe…     9.1      9.7  11.7  15.4  20.1  24.5  27.4   27.2      23.8    19.2
 3 Berl…    -0.2      0.1   4.4   8.2  13.8  16    18.3   18        14.4    10  
 4 Brus…     3.3      3.3   6.7   8.9  12.8  15.6  17.8   17.8      15      11.1
 5 Buda…    -1.1      0.8   5.5  11.6  17    20.2  22     21.3      16.9    11.3
 6 Cope…    -0.4     -0.4   1.3   5.8  11.1  15.4  17.1   16.6      13.3     8.8
 7 Dubl…     4.8      5     5.9   7.8  10.4  13.3  15     14.6      12.7     9.7
 8 Elsi…    -5.8     -6.2  -2.7   3.1  10.2  14    17.2   14.9       9.7     5.2
 9 Kiev     -5.9     -5    -0.3   7.4  14.3  17.8  19.4   18.5      13.7     7.5
10 Krak…    -3.7     -2     1.9   7.9  13.2  16.9  18.4   17.6      13.7     8.6
# ℹ 25 more rows
# ℹ 7 more variables: November <dbl>, December <dbl>, Annual <dbl>,
#   Amplitude <dbl>, Latitude <dbl>, Longitude <dbl>, Area <chr>

We notice that the first variable has no name. We can rename it using the dplyr::rename() function as follows:

temperature <- dplyr::rename(temperature, city = ...1)
temperature

# A tibble: 35 × 18
   city  January February March April   May  June  July August September October
   <chr>   <dbl>    <dbl> <dbl> <dbl> <dbl> <dbl> <dbl>  <dbl>     <dbl>   <dbl>
 1 Amst…     2.9      2.5   5.7   8.2  12.5  14.8  17.1   17.1      14.5    11.4
 2 Athe…     9.1      9.7  11.7  15.4  20.1  24.5  27.4   27.2      23.8    19.2
 3 Berl…    -0.2      0.1   4.4   8.2  13.8  16    18.3   18        14.4    10  
 4 Brus…     3.3      3.3   6.7   8.9  12.8  15.6  17.8   17.8      15      11.1
 5 Buda…    -1.1      0.8   5.5  11.6  17    20.2  22     21.3      16.9    11.3
 6 Cope…    -0.4     -0.4   1.3   5.8  11.1  15.4  17.1   16.6      13.3     8.8
 7 Dubl…     4.8      5     5.9   7.8  10.4  13.3  15     14.6      12.7     9.7
 8 Elsi…    -5.8     -6.2  -2.7   3.1  10.2  14    17.2   14.9       9.7     5.2
 9 Kiev     -5.9     -5    -0.3   7.4  14.3  17.8  19.4   18.5      13.7     7.5
10 Krak…    -3.7     -2     1.9   7.9  13.2  16.9  18.4   17.6      13.7     8.6
# ℹ 25 more rows
# ℹ 7 more variables: November <dbl>, December <dbl>, Annual <dbl>,
#   Amplitude <dbl>, Latitude <dbl>, Longitude <dbl>, Area <chr>
…
We learn from it that the data contains 18 variables and 35 observations. The skimr::skim() function also provides a nice summary of the data types and the number of missing values. We can see that the city and Area variables are character vectors and that there are no missing values.

Data visualization

The first 13 columns are the temperature measurements for each month. We can use the dplyr::select() function to select these columns and the city column as identifier:

temperature_sub <- dplyr::select(temperature, 1:13)
temperature_sub

# A tibble: 35 × 13
   city  January February March April   May  June  July August September October
   <chr>   <dbl>    <dbl> <dbl> <dbl> <dbl> <dbl> <dbl>  <dbl>     <dbl>   <dbl>
 1 Amst…     2.9      2.5   5.7   8.2  12.5  14.8  17.1   17.1      14.5    11.4
 2 Athe…     9.1      9.7  11.7  15.4  20.1  24.5  27.4   27.2      23.8    19.2
 3 Berl…    -0.2      0.1   4.4   8.2  13.8  16    18.3   18        14.4    10  
 4 Brus…     3.3      3.3   6.7   8.9  12.8  15.6  17.8   17.8      15      11.1
 5 Buda…    -1.1      0.8   5.5  11.6  17    20.2  22     21.3      16.9    11.3
 6 Cope…    -0.4     -0.4   1.3   5.8  11.1  15.4  17.1   16.6      13.3     8.8
 7 Dubl…     4.8      5     5.9   7.8  10.4  13.3  15     14.6      12.7     9.7
 8 Elsi…    -5.8     -6.2  -2.7   3.1  10.2  14    17.2   14.9       9.7     5.2
 9 Kiev     -5.9     -5    -0.3   7.4  14.3  17.8  19.4   18.5      13.7     7.5
10 Krak…    -3.7     -2     1.9   7.9  13.2  16.9  18.4   17.6      13.7     8.6
# ℹ 25 more rows
# ℹ 2 more variables: November <dbl>, December <dbl>

Next, we use the tidyr::pivot_longer() function to reshape the data into a long format which is required for visualization with ggplot2.

temperature_sub <- tidyr::pivot_longer(
  temperature_sub, 
  cols = -city, 
  names_to = "month", 
  values_to = "temperature"
)
temperature_sub

# A tibble: 420 × 3
   city      month     temperature
   <chr>     <chr>           <dbl>
 1 Amsterdam January           2.9
 2 Amsterdam February          2.5
 3 Amsterdam March             5.7
 4 Amsterdam April             8.2
 5 Amsterdam May              12.5
 6 Amsterdam June             14.8
 7 Amsterdam July             17.1
 8 Amsterdam August           17.1
 9 Amsterdam September        14.5
10 Amsterdam October          11.4
# ℹ 410 more rows

Next, we convert the month column to a proper date-time format using the lubridate::parse_date_time() function:

temperature_sub <- dplyr::mutate(
  temperature_sub, 
  month = lubridate::parse_date_time(month, orders = "m")
)
temperature_sub

# A tibble: 420 × 3
   city      month               temperature
   <chr>     <dttm>                    <dbl>
 1 Amsterdam 0000-01-01 00:00:00         2.9
 2 Amsterdam 0000-02-01 00:00:00         2.5
 3 Amsterdam 0000-03-01 00:00:00         5.7
 4 Amsterdam 0000-04-01 00:00:00         8.2
 5 Amsterdam 0000-05-01 00:00:00        12.5
 6 Amsterdam 0000-06-01 00:00:00        14.8
 7 Amsterdam 0000-07-01 00:00:00        17.1
 8 Amsterdam 0000-08-01 00:00:00        17.1
 9 Amsterdam 0000-09-01 00:00:00        14.5
10 Amsterdam 0000-10-01 00:00:00        11.4
# ℹ 410 more rows
…
How much time is needed for chicken to go back to normality in terms of gene expression?

Data import & Visualization

A quick glance at the content of the CSV file shows that the delimiter is the semi-colon. We can therefore resort to readr::read_delim() to import the data:

df <- readr::read_delim(
  file = "12-PCA-Data/chicken.csv", 
  delim = ";", 
  show_col_types = FALSE
)
df

# A tibble: 7,406 × 44
   gene         N_1     N_2     N_3     N_4      N_6     N_7     j16_3   j16_4
   <chr>      <dbl>   <dbl>   <dbl>   <dbl>    <dbl>   <dbl>     <dbl>   <dbl>
 1 A4GALT  -0.153   -0.0126 -0.140   0.208  -0.461   -0.217  -0.130    -0.295 
 2 A4GNT    0.00873 -0.0130  0.0126  0.0713  0.515    0.158   0.600     0.171 
 3 AACS     0.0426   0.173  -0.0219 -0.0788 -0.00269 -0.0894 -0.0548    0.0145
 4 AADACL1  0.161    0.205   0.185   0.0576  0.307    0.309   0.000618 -0.0414
 5 AADACL2 -0.374    0.0320 -0.411   0.0361 -0.490   -0.145  -0.112    -0.151 
 6 AADACL3 -0.445    0.0638  0.444   0.106  -0.455   -0.0628 -0.0906    0.104 
 7 AAK1    -0.216   -0.157  -0.306  -0.238  -0.218   -0.114  -0.0109   -0.226 
 8 AAMP     1.23     0.650   0.350   1.25    0.138    0.690  -0.903    -0.594 
 9 AARS     0.425    0.0293  0.195  -0.0334 -0.189   -0.297   0.0937    0.0522
10 AARS2   -0.118   -0.189  -0.486   0.414  -0.404   -0.182  -0.598    -0.508 
# ℹ 7,396 more rows
# ℹ 35 more variables: j16_5 <dbl>, j16_6 <dbl>, j16_7 <dbl>, j16r5_1 <dbl>,
#   j16r5_2 <dbl>, j16r5_3 <dbl>, j16r5_4 <dbl>, j16r5_5 <dbl>, j16r5_6 <dbl>,
#   j16r5_7 <dbl>, j16r5_8 <dbl>, j16r16_1 <dbl>, j16r16_2 <dbl>,
#   j16r16_3 <dbl>, j16r16_4 <dbl>, j16r16_5 <dbl>, j16r16_6 <dbl>,
#   j16r16_7 <dbl>, j16r16_8 <dbl>, j16r16_9 <dbl>, j48_1 <dbl>, j48_2 <dbl>,
#   j48_3 <dbl>, j48_4 <dbl>, j48_6 <dbl>, j48_7 <dbl>, j48r24_1 <dbl>, …

The analysis that we want to do puts the focus on the chicken rather that on genes. However, the raw data records genes in rows and chicken in columns grouped by diet. We therefore proceed with some data manipulation to get the data set with 43 rows corresponding to chickens. First, we use tidyr::pivot_longer() to have all variables expect gene become the values of a unique column coined name and the corresponding values in the table for these variables in a unique column coined value:

df <- tidyr::pivot_longer(df, cols = -gene)
df

# A tibble: 318,458 × 3
   gene   name    value
   <chr>  <chr>   <dbl>
 1 A4GALT N_1   -0.153 
 2 A4GALT N_2   -0.0126
 3 A4GALT N_3   -0.140 
 4 A4GALT N_4    0.208 
 5 A4GALT N_6   -0.461 
 6 A4GALT N_7   -0.217 
 7 A4GALT j16_3 -0.130 
 8 A4GALT j16_4 -0.295 
 9 A4GALT j16_5 -0.130 
10 A4GALT j16_6 -0.220 
# ℹ 318,448 more rows

Now, we can see that the name column encodes two different informations:

the type of diet given to the chicken; and,

the chicken ID in his group.

We therefore use tidyr::separate() to get each piece of information into its own column:

df <- tidyr::separate(df, col = name, into = c("diet", "id"), sep = "_")
df

# A tibble: 318,458 × 4
   gene   diet  id      value
   <chr>  <chr> <chr>   <dbl>
 1 A4GALT N     1     -0.153 
 2 A4GALT N     2     -0.0126
 3 A4GALT N     3     -0.140 
 4 A4GALT N     4      0.208 
 5 A4GALT N     6     -0.461 
 6 A4GALT N     7     -0.217 
 7 A4GALT j16   3     -0.130 
 8 A4GALT j16   4     -0.295 
 9 A4GALT j16   5     -0.130 
10 A4GALT j16   6     -0.220 
# ℹ 318,448 more rows

Finally, we perform a last reshaping of the data set to get each gene in a dedicated column via tidyr::pivot_wider():

chk <- tidyr::pivot_wider(df, names_from = gene, values_from = value)
chk

# A tibble: 43 × 7,408
   diet  id     A4GALT    A4GNT     AACS  AADACL1 AADACL2 AADACL3    AAK1   AAMP
   <chr> <chr>   <dbl>    <dbl>    <dbl>    <dbl>   <dbl>   <dbl>   <dbl>  <dbl>
 1 N     1     -0.153   0.00873  0.0426   1.61e-1 -0.374  -0.445  -0.216   1.23 
 2 N     2     -0.0126 -0.0130   0.173    2.05e-1  0.0320  0.0638 -0.157   0.650
 3 N     3     -0.140   0.0126  -0.0219   1.85e-1 -0.411   0.444  -0.306   0.350
 4 N     4      0.208   0.0713  -0.0788   5.76e-2  0.0361  0.106  -0.238   1.25 
 5 N     6     -0.461   0.515   -0.00269  3.07e-1 -0.490  -0.455  -0.218   0.138
 6 N     7     -0.217   0.158   -0.0894   3.09e-1 -0.145  -0.0628 -0.114   0.690
 7 j16   3     -0.130   0.600   -0.0548   6.18e-4 -0.112  -0.0906 -0.0109 -0.903
 8 j16   4     -0.295   0.171    0.0145  -4.14e-2 -0.151   0.104  -0.226  -0.594
 9 j16   5     -0.130   0.723   -0.120    1.27e-1 -0.187  -1.23   -0.151  -0.733
10 j16   6     -0.220   0.743    0.200    6.10e-2 -0.265  -0.157  -0.141  -0.683
# ℹ 33 more rows
# ℹ 7,398 more variables: AARS <dbl>, AARS2 <dbl>, AARSD1 <dbl>, AASS <dbl>,
#   AATF <dbl>, ABAT <dbl>, ABAT1 <dbl>, ABCA1 <dbl>, ABCA3 <dbl>,
#   ABCB10 <dbl>, ABCB7 <dbl>, ABCC4 <dbl>, ABCC5 <dbl>, ABCD3 <dbl>,
#   ABCD4 <dbl>, ABCE1 <dbl>, ABCF2 <dbl>, ABCG1 <dbl>, ABCG2 <dbl>,
#   ABCG4 <dbl>, ABHD11 <dbl>, ABHD12 <dbl>, ABHD2 <dbl>, ABHD3 <dbl>,
#   ABHD5 <dbl>, ABI1 <dbl>, ABI2 <dbl>, ABL1 <dbl>, ABL11 <dbl>, ABL2 <dbl>, …
…
