Tidy Data – Data Science with R
…
Your Turn 4

Use pivot_wider() to reorganize table2 into four columns: country, year, cases, and population.

who

Your Turn 5

Gather the 5th through 60th columns of who into a pair of key:value columns named codes and n.

Then select just the county, year, codes and n variables.

who

# A tibble: 7,240 × 60
   country  iso2  iso3   year new_sp_m014 new_sp_m1524 new_sp_m2534 new_sp_m3544
   <chr>    <chr> <chr> <dbl>       <dbl>        <dbl>        <dbl>        <dbl>
 1 Afghani… AF    AFG    1980          NA           NA           NA           NA
 2 Afghani… AF    AFG    1981          NA           NA           NA           NA
 3 Afghani… AF    AFG    1982          NA           NA           NA           NA
 4 Afghani… AF    AFG    1983          NA           NA           NA           NA
 5 Afghani… AF    AFG    1984          NA           NA           NA           NA
 6 Afghani… AF    AFG    1985          NA           NA           NA           NA
 7 Afghani… AF    AFG    1986          NA           NA           NA           NA
 8 Afghani… AF    AFG    1987          NA           NA           NA           NA
 9 Afghani… AF    AFG    1988          NA           NA           NA           NA
10 Afghani… AF    AFG    1989          NA           NA           NA           NA
# ℹ 7,230 more rows
# ℹ 52 more variables: new_sp_m4554 <dbl>, new_sp_m5564 <dbl>,
#   new_sp_m65 <dbl>, new_sp_f014 <dbl>, new_sp_f1524 <dbl>,
#   new_sp_f2534 <dbl>, new_sp_f3544 <dbl>, new_sp_f4554 <dbl>,
#   new_sp_f5564 <dbl>, new_sp_f65 <dbl>, new_sn_m014 <dbl>,
#   new_sn_m1524 <dbl>, new_sn_m2534 <dbl>, new_sn_m3544 <dbl>,
#   new_sn_m4554 <dbl>, new_sn_m5564 <dbl>, new_sn_m65 <dbl>, …
…
M

F

Calculate the percent of male (or female) children by year. Then plot the percent over time.

babynames |> 
  group_by(year, sex) |> 
  summarise(n = sum(n))

`summarise()` has grouped output by 'year'. You can override using the
`.groups` argument.

# A tibble: 276 × 3
# Groups:   year [138]
    year sex        n
   <dbl> <chr>  <int>
 1  1880 F      90993
 2  1880 M     110491
 3  1881 F      91953
 4  1881 M     100743
 5  1882 F     107847
 6  1882 M     113686
 7  1883 F     112319
 8  1883 M     104627
 9  1884 F     129020
10  1884 M     114442
# ℹ 266 more rows
…
